{
	"A225a" : [52.463056, 4.556111, "06255", "IJmuiden WP"],
	"A210a" : [52.183333, 4.416667, "06210", "Valkenburg"], 
	"PEHFD" : [54.85, 4.73, "06239", "Platform F3"],
	"A248a" : [52.633889, 5.173889, "06248", "Wijdenes WP"],
	"A249a" : [52.65, 4.983333, "06249", "Berkhout"],
	"A251a" : [53.383333, 5.35, "06251", "Terschelling Hoorn"],
	"A257a" : [52.5, 4.6, "06257", "Wijk aan Zee"],
	"A260a" : [52.1, 5.183333, "06260", "De Bilt"],
	"A267a" : [52.883333, 5.383333, "06267", "Stavoren"], 
	"A273a" : [52.7, 5.883333, "06273", "Marknesse"], 
	"A277a" : [53.409, 6.19, "06277", "Lauwersoog"],
	"A278a" : [52.433333, 6.266667, "06278", "Heino"],
	"A279a" : [52.733333, 6.516667, "06279", "Hoogeveen"],
	"A283a" : [52.066667, 6.65, "06283", "Hupsel"],
	"MHUIB1" : [53.574444, 6.399722, "06285", "Huibertgat WP"],
	"A286a" : [53.2, 7.15, "06286", "Nieuw Beerta"],
	"A310a" : [51.45, 3.6, "06310", "Vlissingen"],
	"A319a" : [51.233333, 3.833333, "06319", "Westdorpe"],
	"A323a" : [51.533333, 3.916667, "06323", "Wilhelminadorp"],
	"PEHPG" : [52.366, 3.35, "06203", "P11-B"],
	"A330a" : [51.983333, 4.1, "06330", "Hoek van Holland"],
	"A343a" : [51.883333, 4.316667, "06343", "Rotterdam Geulhaven"],
	"A348a" : [51.966667, 4.933333, "06348", "Cabauw"],
	"A348cloud": [51.966667, 4.933333, "06348", "Cabauw"],
	"A356a" : [51.866667, 5.15, "06356", "Herwijnen"],
	"A377a" : [51.2, 5.766667, "06377", "Ell"],
	"A391a" : [51.5, 6.2, "06391", "Arcen"],
	"DAUK" : [56.399722, 2.065556, "06253", "AUK-Alpha platform"],
	"DEPL" : [51.998611, 3.276389, "06321", "Euro platform"],
	"DK13" : [53.217778, 3.220278, "06252", "K13-Alpha platform"],
	"DLEG" : [51.925833, 3.669722, "06230", "Lichteiland Goeree"],
	"PEHQE" : [52.9167, 4.15, "06012", "Platform Hoorn"],
	"VAM18Ct" : [52.3, 4.766667, "06240", "Schiphol"],
	"VBK22t" : [50.916667, 5.783333, "06380", "Beek"],
	"VGG23t" : [53.123611, 6.584722, "06280", "Eelde"],
	"VKDobs" : [52.916667, 4.783333, "06235", "De Kooy"],
	"VLE23t" : [52.45, 5.533333, "06269", "Lelystad"],
	"VRD24t" : [51.95, 4.45, "06344", "Zestienhoven"],
	"VISVS" : [52.13964, 4.436371, "06215", "Voorschoten"],
	"VISNV" : [52.25499, 4.647742, "99103", "Nieuw Vennep"],
	"VISMU" : [52.33533, 5.092317, "99102", "Muiden"], 
	"VISNK" : [52.15138, 4.765003, "99104", "Nieuwkoop"],
	"VISAD" : [52.482, 4.72595, "99101", "Assendelft"],
	"ZBG2" : [51.766667, 3.616667, "06312", "Brouwershavensche Gat"],	
	"ZCAWI" : [51.383333, 3.383333, "06308", "Cadzand WP"],
	"ZHAWI" : [51.45, 4.00, "06315", "Hansweert WP"],
	"ZHFPL" : [51.383333, 3.666667, "06311", "Hoofdplaat WP"],
	"ZMRG" : [51.516667, 4.133333, "06331", "Marollegat"],
	"ZOS4" : [51.65, 3.683333, "06316", "Oosterschelde"],
	"ZSTAV" : [51.6, 4.00, "06324", "Stavenisse WP"],
	"ZVR" : [51.5, 3.25, "06313", "Vlakte van de Raan"],
	"A350" : [51.5667, 4.9333, "06350", "Gilze-Rijen"],
	"A275" : [52.0667, 5.8833, "06275", "Deelen"],
	"A270" : [53.2167, 5.7667, "06270", "Leeuwarden"],
	"A290a" : [52.2667, 6.9, "06290", "Twenthe"],
	"A370" : [51.45, 5.4167, "06370", "Eindhoven"],
	"A375" : [51.65, 5.7, "06375", "Volkel"],
	"A340" : [51.45, 4.35, "06340", "Woensdrecht"],
	"A242" : [53.25, 4.9467, "06242", "Vlieland"],
	"PEHMA" : [53.5, 5.96, "06208", "Platform AWG-1"],
	"PEHMG" : [53.6167, 4.9667, "06242", "Platform L9-FF-1"],
	"A258a" : [52.6481, 5.4003, "06258", "Houtrib"],
	"PEHFZ" : [54.1167, 4.0167, "06206", "Platform F16-A"],
	"PEHDV" : [54.3167, 2.93, "06201", "Platform D15-FA-1"],
	"PEHKV" : [53.2667, 3.6333, "06204", "Platform K14-FA-1C"],
	"PEHAK" : [55.41667, 3.81667, "06205", "Platform A12-CPP"],
	"PEHJA" : [53.8167, 2.95, "06211", "J6-A"],
	"PEHHW" : [54.03697, 6.04161, "06214", "Platform Gemini"]
}
